input 193
66 0
68 1
70 0
72 1
74 1
76 0
78 0
80 0
82 1
84 0
86 1
88 1
90 0
92 0
94 1
96 1
98 1
100 1
102 1
104 1
106 1
108 1
110 1
112 1
114 1
116 1
118 1
120 1
122 1
124 1
126 1
128 1
194 0
196 0
198 1
200 0
202 1
204 1
206 0
208 1
210 1
212 1
214 0
216 1
218 0
220 0
222 1
224 1
226 1
228 1
230 1
232 1
234 1
236 1
238 1
240 1
242 1
244 1
246 1
248 1
250 1
252 1
254 1
256 1
322 0
324 1
326 0
328 0
330 0
332 0
334 1
336 0
338 0
340 0
342 1
344 1
346 1
348 0
350 1
352 0
354 0
356 0
358 0
360 0
362 0
364 0
366 0
368 0
370 0
372 0
374 0
376 0
378 0
380 0
382 0
384 0
450 1
452 0
454 0
456 0
458 0
460 0
462 0
464 1
466 0
468 1
470 1
472 1
474 0
476 0
478 1
480 1
482 1
484 1
486 1
488 1
490 1
492 1
494 1
496 1
498 1
500 1
502 1
504 1
506 1
508 1
510 1
512 1
578 0
580 1
582 0
584 0
586 1
588 0
590 1
592 0
594 0
596 0
598 0
600 1
602 1
604 1
606 1
608 0
610 1
612 1
614 1
616 1
618 1
620 1
622 1
624 1
626 1
628 1
630 1
632 1
634 1
636 1
638 1
640 1
642 1
644 1
646 0
648 0
650 1
652 0
654 1
656 0
658 0
660 0
662 1
664 1
666 0
668 1
670 0
672 1
674 0
10396 1
676 0
678 0
680 0
682 0
684 0
686 0
688 0
690 0
692 0
694 0
696 0
698 0
700 0
702 0
704 0
